Have You Missed Your Moment to Make a Masterpiece?
…
Data Wrangling

Curation

First, we must load the datasets downloaded from the link provided above.

library(tidyverse)
library(dplyr)
library(ggplot2)
artist_data <- read_csv("artists.csv")
artwork_data <- read_csv("artworks.csv")

artist_data

## # A tibble: 15,091 x 6
##    `Artist ID` Name           Nationality Gender `Birth Year` `Death Year`
##          <int> <chr>          <chr>       <chr>         <int>        <int>
##  1           1 Robert Arneson American    Male           1930         1992
##  2           2 Doroteo Arnaiz Spanish     Male           1936           NA
##  3           3 Bill Arnold    American    Male           1941           NA
##  4           4 Charles Arnol American    Male           1946           NA
##  5           5 Per Arnoldi    Danish      Male           1941           NA
##  6           6 Danilo Aroldi  Italian     Male           1925           NA
##  7           7 Bill Aron      American    Male           1941           NA
##  8           9 David Aronson  American    Male           1923           NA
##  9          10 Irene Aronson  American    Female         1918           NA
## 10          11 Jean (Hans) A French      Male           1886         1966
## # ... with 15,081 more rows

artwork_data

## # A tibble: 130,262 x 21
##    `Artwork ID` Title       `Artist ID` Name    Date  Medium   Dimensions 
##           <int> <chr>       <chr>       <chr>   <chr> <chr>    <chr>      
##  1            2 Ferdinands 6210        Otto W 1896  Ink and "19 1/8 x 
##  2            3 City of Mu 7470        Christ 1987  Paint a "16 x 11 3
##  3            4 Villa near 7605        Emil H 1903  Graphit "13 1/2 x 
##  4            5 The Manhat 7056        Bernar 1980  Photogr "20 x 20\"
##  5            6 Villa, pro 7605        Emil H 1903  Graphit "15 1/8 x 
##  6            7 The Manhat 7056        Bernar 1976 Gelatin "14 x 18\"
##  7            8 The Manhat 7056        Bernar 1976 Gelatin "Each: 14 
##  8            9 The Manhat 7056        Bernar 1976 Gelatin "14 x 18\"
##  9           10 The Manhat 7056        Bernar 1976 Gelatin "14 x 18\"
## 10           11 The Manhat 7056        Bernar 1976 Gelatin "14 x 18\"
## # ... with 130,252 more rows, and 14 more variables: `Acquisition
## #   Date` <date>, Credit <chr>, Catalogue <chr>, Department <chr>,
## #   Classification <chr>, `Object Number` <chr>, `Diameter (cm)` <dbl>,
## #   `Circumference (cm)` <chr>, `Height (cm)` <dbl>, `Length (cm)` <chr>,
## #   `Width (cm)` <dbl>, `Depth (cm)` <dbl>, `Weight (kg)` <dbl>, `Duration
## #   (s)` <chr>
…
Now, lets remove any artists with unknown birth years from artist_data.

artist_data <- artist_data %>%
  filter(!is.na(Birth_Year))

When first viewing the data I could see that the Date column was very untidy and would require some cleaning up. Lets see what kinds of entries will require modification by filtering out correctly formatted years.

artwork_data_bad <- artwork_data %>%
  filter(!str_detect(`Date`, "^\\d{4}$")) %>%
  select(Date)

sample_frac(artwork_data_bad, .1)

## # A tibble: 4,406 x 1
##    Date       
##    <chr>      
##  1 c. 1900    
##  2 1896-1938  
##  3 1920-25    
##  4 after 1920?
##  5 c. 1967    
##  6 (1968-69)  
##  7 c. 1940    
##  8 1952-68    
##  9 1947-1958  
## 10 1937-1938  
## # ... with 4,396 more rows
…
